<svg width="2197" height="4560" viewBox="0 0 2197 4560" fill="none" xmlns="http://www.w3.org/2000/svg">
<path fill-rule="evenodd" clip-rule="evenodd" d="M2197 0H0V4560H2197V0ZM1849 1530H349V3030H1849V1530Z" fill="black" fill-opacity="0.13"/>
</svg>
